rho_idx 1 1
rho_idx 2 2
rho_idx 3 3
rho_idx 4 4
rho_idx 5 5
rho_idx 6 6
rho_idx 7 7
rho_idx 8 8
rho_idx 9 9
rho_idx 10 10
rho_idx 11 11
rho_idx 12 12
rho_idx 13 13
rho_idx 14 14
rho_idx 15 15
rho_idx 16 16
rho_idx 17 17
rho_idx 18 18
rho_idx 19 19
rho_idx 20 20
rho_idx 21 21
rho_idx 22 22
rho_idx 23 23
rho_idx 24 24
rho_idx 25 25
rho_idx 26 26
rho_idx 27 27
rho_idx 28 28
rho_idx 29 29
rho_idx 30 30
rho_idx 31 31
rho_idx 32 32
rho_idx 33 33
rho_idx 34 34
rho_idx 35 35
rho_idx 36 36
rho_idx 37 37
rho_idx 38 38
rho_idx 39 39
rho_idx 40 40