integration   2
dense         0
sb_coupling   0.1
cutoff_freq   250
T             298
time_start    0
time_stop     5000
time_step     25
tol_solver    1.0d-15
corr_length   -1.0
overlap_K     1 
sd_ohmic      1
full_secular  3
prepare_exc   1
print_rho     1
rho_initial   4 4  1.0 0.0